C:\Users\Admin\Documents\oop\Animal\src\main\java\com\kaewalin\animal\Human.java
C:\Users\Admin\Documents\oop\Animal\src\main\java\com\kaewalin\animal\LandAnimal.java
C:\Users\Admin\Documents\oop\Animal\src\main\java\com\kaewalin\animal\Reptile.java
C:\Users\Admin\Documents\oop\Animal\src\main\java\com\kaewalin\animal\Animal.java
C:\Users\Admin\Documents\oop\Animal\src\main\java\com\kaewalin\animal\AquaticAnimal.java
C:\Users\Admin\Documents\oop\Animal\src\main\java\com\kaewalin\animal\Poultry.java
C:\Users\Admin\Documents\oop\Animal\src\main\java\com\kaewalin\animal\TestAnimal.java
